{
    "status": true,
    "code": 200,
    "data": [
        {
            "id": 1,
            "name": "Bột tắm Đông y Thanh Dược",
            "price": 600000,
            "short_description": "Bột tắm Đông Y Thanh Dược cam đoan không chứa dù chỉ 1% chất tẩy hay thành phần hoá học. Tất cả từ bột thảo dược hoa cỏ. Bà bầu hay đang cho con bú vẫn dùng thoải mái.",
            "description": "\nBột tắm Đông y Thanh Dược an toàn 100% sản xuất từ thảo dược đông y. Dùng được cho phụ nữ đang mang thai và cho con bú.\nThành phần chính được chiết xuất từ thảo dược thiên nhiên: Cây Ô rô, Bột lá cây Ô Rô, Bột Nghệ Đen, Cây Bạch Hạc, Xuyên Tâm Liên, cây Bồ Hòn, Ngọc Trai tán mịn, và 6 loại thảo dược đông y quý.\nCông Dụng bột tắm đông y Thanh Dược:\n– Tẩy tế bào chết cho làn da mịn màng, da dẻ săn chắc, trắng khỏe.\n– Dưỡng da trắng hồng chuyên sâu.\n– Làm mờ các vết thâm nám, sẹo mụn trên cơ thể.\n– Làm mềm và đều màu da, hiệu quả trắng mịn sau 3-5 lần tắm.\n– Không như các loại tắm trắng hoá học khác, bột tắm trắng đông y Thanh Dược không gây châm chích da, không bào mòn da, không bắt nắng, không chứa chất tẩy trắng, không mùi hoá học. An toàn tuyệt đối cho mẹ bầu và sau sinh.\n– Thảo dược ngấm vào da giúp lưu thông khí huyết, giúp tuần hoàn máu.\nXem chi tiết Hướng dẫn sử dụng Bột tắm Đông y Thanh Dược\nLưu ý khi sử dụng\nNgoài việc hướng dẫn sử dụng Bột tắm Đông y Thanh Dược. Bạn nên lưu ý một số vấn đề sau:\nBột tắm Đông Y Thanh Dược thì trắng sáng từ từ, mịn màng, chứ không như bột tẩy trắng hoá học trắng bệch nhé. Ai ham trắng bệch thì không nên mua.\nBảo quản: Để tránh ẩm mốc mối mọt. Hãy để gói bột vào ngăn mát tủ lạnh.\nHạn sử dụng: 2 năm kể từ ngày sản xuất. Bột tắm Thanh Dược có trọng lượng 300gr\n– DÙNG ĐƯỢC CHO PHỤ NỮ ĐANG MANG THAI VÀ CHO CON BÚ –",
            "image": "products/05_bot_tam_trang_01-600x600.jpg",
            "status": "in_stock",
            "visibility": "visible",
            "attributes": [
                {
                    "name": "Trọng lượng",
                    "value": "300 gr"
                },
                {
                    "name": "Thành phần",
                    "value": "Hồng hoa, linh chi, ngọc trai, bạch hạc, xuyên tâm liên & 6 loại thảo dược khác"
                },
                {
                    "name": "Hạn sử dụng",
                    "value": "02 năm kể từ ngày sản xuất"
                },
                {
                    "name": "Bảo quản",
                    "value": "Để tránh ẩm mốc, mối mọt. Hãy để gói bột vào ngăn mát tủ lạnh."
                }
            ]
        },
        {
            "id": 2,
            "name": "Mặt Nạ Thảo Dược Thanh Dược",
            "price": 700000,
            "short_description": "Chuyên chị nám má, tàn nhang, giảm bớt sắc tố melanin, đồi mồi, vết thâm, nhuận bì phu, làm sáng mịn, hồng hào da.",
            "description": "\nMask Thanh Dược – Mặt nạ từ 100% thảo dược tự nhiên.\nBà Bầu – Mẹ Bỉm sữa – Trẻ em đều sử dụng được – Không tác dụng phụ\nSản phẩm cam kết 100% chiết xuất từ thảo dược thiên nhiên chứa: Thành phần chính là từ các thảo dược đông y, không có chất bảo quản. Làm đẹp da từ các bài thuốc đông y là cách làm đẹp an toàn hiệu quả được lưu truyền lâu đời trong dân gian, và cũng như được các mỹ nhân Trung Quốc thời xưa sử dụng.\n– Thành phần: Hoa cúc, linh chi, ngọc trai, bạc hà, tảo biển, hoa đào và thảo dược thuốc đông y vừa đủ !\n– Tác Dụng:\n⇒ Mặt nạ thảo dược Thanh Dược có tác dụng làm trắng da ngay lần đầu tiên sử dụng.\n⇒ Mịn da.\n⇒ Chống lão hoá, giúp da săn chắc và tạo sự đàn hồi cho da.\n⇒ Giảm các sắc tố sạm màu trên da, giảm thâm.\n⇒ Ngăn ngừa mụn cám, mụn đầu đen và se nhỏ chân lông.\n⇒ Giảm nếp nhăn, đào thải các chất độc tích tụ lâu ngày dưới da.\nMặt nạ 100% thảo dược Thanh Dược có trọng lượng 130gr\nThời gian sử dụng khoảng 3 tháng.\n– Hướng dẫn sử dụng: Sử dụng 1-2 muỗng cafe nhỏ trộn đều với nước ấm (đối với khách đang điều trị với Thuốc Thanh Dược), trứng gà ta (và nhớ cho cả lòng đỏ và lòng trắng trứng vào nhé) hoặc sữa tươi không đường (đối với khách đã điều trị xong hoặc không điều trị Thanh Dược), tạo thành hỗn hợp sền sệt thoa đều lên da mặt, để khô tự nhiên 15 phút rồi rửa sạch lại bằng nước ấm. Nên sử dụng buổi tuổi trước khi đi ngủ và trước bước dùng kem dưỡng da. Nên kết hợp Mask Đông Y Thanh Dược với Thuốc trị mụn Thanh Dược để đạt hiệu quả tối ưu nhất. Sử dụng tuần 3 lần để có hiệu quả tốt nhất.\nLưu ý: Khi bạn đang điều trị bằng Thuốc Thanh Dược thì chỉ dùng mask để đắp, không pha mask với bất kì một loại hỗn hợp nào khác như trứng gà, hay sữa chua nhé!\nHệu quả khi sử dụng Mask Thanh Dược trong quá trình điều trị Mụn – Nám -Tàn Nhang – Sẹo Rỗ: Đắp mask thường xuyên trong quá trình điều trị mụn bằng Thanh Dược sẽ giúp đẩy nhanh quá trình điều trị mụn, giảm thâm nám, sẹo rỗ,.. giúp tế bào da chết nhanh bong hơn, giảm sưng đỏ, ngứa khi thấm thuốc, giúp se khít lỗ chân lông, dưỡng ẩm cho da sản sinh Collagen thúc đẩy quá trình tái tạo bề mặt da trắng mịn hồng hào.\nNgoài ra, đối với da đã điều trị xong hoặc không điều trị bằng Thuốc Thanh Dược thì đắp mask thường xuyên giúp da bạn trắng hồng. Chống lão hóa và giảm nếp nhăn cực kì hiệu quả. Bạn sẽ cảm nhận được lỗ chân lông nhỏ đi, da đều màu hơn, làn da càng ngày càng căng bóng mịn màng nhờ quá trình thúc đẩy sản sinh collagen cho da và giảm khả năng hình thành sắc tố melanin do khí hậu, môi trường. Hãy chăm chỉ đắp mask trước khi đi ngủ để có được làn da mơ ước,Vì bạn xứng đáng.\nTừ khóa: Mask Thanh Dược, mặt nạ Thảo Dược, mặt nạ Thanh Dược, chống lão hóa, trắng da, trị mụn Thanh Dược. Mỹ phẩm Thanh Dược, trị mụn Thanh Dược, tái tạo da, trắng mịn, hồng hào, trị lỗ chân lông to, trị mụn, trị mụn tận gốc, trị nám, trị tàn nhang, trị sẹo rỗ, trị thâm, Thuốc trị mụn Thanh Dược, Mask Thanh Dược trứng gà…..",
            "image": "products/1584f0f1d5ba35e46cab-600x600.png",
            "status": "in_stock",
            "visibility": "visible",
            "attributes": [
                {
                    "name": "Grams",
                    "value": "200"
                },
                {
                    "name": "Ingredients",
                    "value": "Strawberry, Blueberry, Sugar, Vanillin"
                },
                {
                    "name": "Calories",
                    "value": "120"
                },
                {
                    "name": "Potassium",
                    "value": "77 mg"
                },
                {
                    "name": "Total Fat",
                    "value": "0.1 g"
                }
            ]
        },
        {
            "id": 3,
            "name": "Đông y ngâm chân Thanh Dược",
            "price": 250000,
            "short_description": "Chủ trị : Suy giãn tĩnh mạch, mất ngủ, điều hoà khí huyết, giảm đau nhức cơ thể vat xương khớp, tay chân tê lạnh, phong thấp, hoa mắt chóng mắt, bệnh huyết áp.",
            "description": "\nĐÔNG Y NGÂM CHÂN THANH DƯỢC :\nChủ trị : Suy giãn tĩnh mạch, mất ngủ, điều hoà khí huyết, giảm đau nhức cơ thể vat xương khớp, tay chân tê lạnh, phong thấp, hoa mắt chóng mắt, bệnh huyết áp.\nThành Phần : Đinh Hương, Hồng hoa, Hoài sơn, Độc hoạt, đương quy, Sa nhân, bạch chỉ, đỗ trọng, quế chi , Sinh khương, đại hồi, tầm cốt phong, độc hoạt , nhũ hương , mộc dược , huyết kiệt , lão hạc thảo , hoàng cảo .\nKhi ngâm chân, các vị thuốc Bắc sẽ có tác dụng vận động khí huyết trong cơ thể, giúp trị các bệnh về xương khớp, đồng thời lưu thông máu, khiến các dây thần kinh hoạt động nhanh hơn. ♻️Thường xuyên áp dụng phương pháp ngâm chân bằng thuốc Bắc sẽ loại bỏ các chất thải trong cơ thể bạn, đó là lý do khiến bạn cảm thấy thoải mái, thư giãn hơn, khiến giấc ngủ đến dễ dàng, ngon và sâu giấc hơn. và trẻ đẹp hơn.\n✔ Đun 1 thang thuốc bắc cùng với 4 lít nước sôi, để khoảng 20 phút cho các chất trong thuốc tan ra. Để nước nguội dần, khoảng còn 40 độ C thì ngâm chân. ( 1 thang có thể chia ra nấu 2-3 lần ngâm) ✔ Rửa sạch chân, lau khô chân và ngâm chân trong chậu nước thuốc khoảng 15 – 30 phút mỗi ngày trước khi đi ngủ . Vào mùa đông, bạn cũng có thể đặt bàn tay vào ngâm cùng để giữ ấm cơ thể. ✔ Ngâm cho đến khi nước thuốc nguội hẳn, lau khô chân.\nSau khi ngâm chân trong nước với đủ thời gian, bạn nên để chân khô và xoa một chút tinh dầu rồi nhẹ nhàng xoa bóp để máu được lưu thông, giảm các cơn đau và khiến cơ thể thoải mái. Bạn có thể ngâm chân bằng thuốc Bắc vào bất kì thời gian nào trong ngày, nhưng để đạt được hiệu quả tốt nhất, bạn nên ngâm chân vào mỗi tối trước khi đi ngủ.",
            "image": "products/04_ngam_chan_01-600x600.png",
            "status": "in_stock",
            "visibility": "visible",
            "attributes": [
                {
                    "name": "Grams",
                    "value": "200"
                },
                {
                    "name": "Ingredients",
                    "value": "Strawberry, Blueberry, Sugar, Vanillin"
                },
                {
                    "name": "Calories",
                    "value": "120"
                },
                {
                    "name": "Potassium",
                    "value": "77 mg"
                },
                {
                    "name": "Total Fat",
                    "value": "0.1 g"
                }
            ]
        },
        {
            "id": 4,
            "name": "Sắc ngọc trà Thanh Dược",
            "price": 450000,
            "short_description": "Sắc Ngọc Trà giúp làm giảm tình trạng thâm nám, đào thải độc tố ra ngoài, giữ hoài nét xuân, điều chỉnh huyết áp, phòng ngừa ung thư, giúp tinh thần sảng khoái, thư thái",
            "description": "\nTÁC DỤNG CỦA SẮC NGỌC TRÀ:\n• Giảm tình trạng thâm nám, đẩy lùi sắc tố melanin, đào thải độc tố ra ngoài, giữ hoài nét xuân.\n• Những loại thảo dược đỏ chứa 1 lượng vitamin C rất lớn giúp chống oxi hoá, đồng thời sản sinh collagen giúp da căng mịn, hồng hào và trẻ trung hơn.\n• Giữ được huyết áp ổn định, không còn tăng giảm thất thường và mặt đỏ bừng bừng mỗi khi làm việc nặng.\n• Đặc biệt hơn trà còn có tác dụng phòng chống ung thư nữa.\n• Giúp tinh thần sảng khoái, thư thái vào mỗi buổi sáng, cung cấp năng lượng tràn trề cho ngày mới làm việc.\n• Giúp dễ tiêu hoá, không đầy bụng, không lo những căn bệnh về dạ dày.\n• Không còn táo bón (đây cũng là lý do khiến da dẻ chúng ta sần sùi do hệ tiêu hoá kém)\n• Cơ thể nhẹ nhàng hơn nhờ chức năng detox thải độc cơ thể.\n• Giúp tóc chắc khoẻ, giảm rụng tóc\n• Giảm stress cực kì hiệu quả với những bạn có cường độ công việc cao, hơn nữa còn thích hợp cho bệnh nhân trầm cảm, hay lo âu bồn chồn .\n• Giảm mỡ thừa đáng kể, không lo béo phì.\n• Tăng trí nhớ, giúp hơi thở thơm tho.\nCảm nhận khi uống Sắc Ngọc Trà\n► Tôi đã thưởng thức cả 1 vườn hoa chỉ trong 1 tách trà.\n► Một mùi the the chạy thẳng vào sống mũi, dễ chịu, cứ hít mãi.\n► Nhấp 1 ngụm, nuốt đến đâu cảm giác dễ chịu lan toả đến đó. Vị chua chua, the ngay đầu lưỡi, sau đó để lại vị ngọt thanh khó tả.\n► Trong kho tàng y học Việt Nam, có rất nhiều loại cây cỏ, hoa lá được dùng để chống lại lão hoá, thải độc cơ thể, giúp giữ mãi tuổi xuân… mà ít được ai biết đến.\n► Chưa thử sẽ không biết được cảm giác đó kích thích đến cỡ nào đâu.\nHƯỚNG DẪN SỬ DỤNG SẮC NGỌC TRÀ:\n► Dùng 3- 5gr trà cho khoảng 150ml – 200ml nước sôi ở 90 -95 độ C (Không dùng nước quá sôi sẽ làm mất các vitamin có lợi trong trà). Tráng ấm và rửa trà qua một lần nước nóng trong khoảng 15 giây, sau đó châm nước sôi và đợi khoảng 10 phút cho trà ngấm nước và tiết ra tinh chất rồi thưởng thức.\n► Mỗi ngày 2 lần vào buổi sáng trước khi ăn sáng 30 phút uống 1 ly trà Sắc Ngọc rất thơm ngon, tinh thần sảng khoái, phấn chấn vô cùng và quan trọng là thải độc cho cơ thể. Và buổi tối uống sau bữa ăn tối 30 phút giúp cơ thể tiêu hóa tốt hơn, ngủ ngon hơn, giúp quá trình trao đổi chất nhanh hơn vì thế bạn sẽ không bị béo phì hay các bệnh liên quan khác.",
            "image": "products/03_sac_ngoc_tra_01-600x600.jpg",
            "status": "in_stock",
            "visibility": "visible",
            "attributes": [
                {
                    "name": "Grams",
                    "value": "200"
                },
                {
                    "name": "Ingredients",
                    "value": "Strawberry, Blueberry, Sugar, Vanillin"
                },
                {
                    "name": "Calories",
                    "value": "120"
                },
                {
                    "name": "Potassium",
                    "value": "77 mg"
                },
                {
                    "name": "Total Fat",
                    "value": "0.1 g"
                }
            ]
        },
        {
            "id": 5,
            "name": "Trà giảm cân Slim Tea",
            "price": 450000,
            "short_description": "Slim Tea chứa các thành phần thảo dược giúp giảm cân và giảm cảm giác thèm ăn như: Trà Matcha Olong, gừng, khổ qua, cỏ ngọt, cam thảo, lá sen, atiso…",
            "description": "\n1. Công dụng của trà giảm cân thảo dược SLIM TEA: – Đốt cháy các vùng mỡ thừa ở trong cơ thể. Đặc biệt ở các vùng dễ tích luỹ mỡ như bụng, đùi, bắp chân, bắp tay…\n– Trà Ô Long có thể đốt cháy chất béo gấp 2.5 lần so với trà xanh và làm giảm cholesterol trong máu.\n– Lá sen, cỏ ngọt, khổ qua, cam thảo giúp đẩy lùi các vấn đề về dạ dày, bệnh lý mà người giảm cân rất hay mắc phải.\n– Gừng giúp đốt mỡ thừa, tránh tình trạng tụt huyết áp, tụt canxi trong quá trình giảm cân.\ntra-giam-can-tan-mo-slim-tea-tran-mao Đặc biệt: – Thoải mái ăn uống trong quá trình sử dụng trà SLIM TEA;\n– Vị trà dễ uống, không quá đắng hay quá ngọt;\n– Không có các tác dụng phụ như: Tụt huyết áp, chóng mặt, mệt mỏi, tim đập nhanh…như các loại thảo mộc giảm cân thông thường.\n– Thời gian sử dụng kéo dài, tốc độ giảm vừa phải (giảm 2-3kg/ tháng/ liệu trình).\n2. Cách sử dụng trà giảm cân thảo dược SLIM TEA tra-giam-can-tan-mo-slim-tea-tran-mao\n– Hãm trà bằng nước sôi, mỗi túi trà sử dụng 150ml – 200ml nước.\n– Uống trước khi ăn 30 phút (trước bữa sáng càng tốt) để đạt hiệu quả tốt nhất.\n– Mỗi ngày uống 2 lần.\n– Nên ăn đủ bữa, không nhịn ăn, bổ sung nhiều nước và rau xanh, trái cây.\n– Kết hợp với luyện tập thể thao hợp lý.",
            "image": "products/01_Slim_tea_01-600x600.jpg",
            "status": "in_stock",
            "visibility": "visible",
            "attributes": [
                {
                    "name": "Grams",
                    "value": "200"
                },
                {
                    "name": "Ingredients",
                    "value": "Strawberry, Blueberry, Sugar, Vanillin"
                },
                {
                    "name": "Calories",
                    "value": "120"
                },
                {
                    "name": "Potassium",
                    "value": "77 mg"
                },
                {
                    "name": "Total Fat",
                    "value": "0.1 g"
                }
            ]
        },
        {
            "id": 6,
            "name": "Serum trị mụn Thanh Dược",
            "price": 1500000,
            "short_description": "Serum trị mụn Thanh Dược là 1 loại thuốc đông y bôi ngoài da, chiết xuất 100% thảo dược thiên nhiên. Đẩy lùi 100% mụn dưới da, cân bằng da dầu, se khít lỗ chân lông, làm mờ sẹo rỗ, làm đầy sẹo lõm do mụn để lại, đánh tan vết nám mỹ phẩm…",
            "description": "\nThành phần chính: Nghệ, nhân sâm, linh chi, tinh chất vỏ chanh, tinh dầu tràm trà, hoa cúc, tinh dầu jojoba và một số loại Thảo Dược quý hiếm khác…..\nNghệ Nhân Sâm\nLinh Chi Tinh Dầu Vỏ Chanh\nTinh Dầu Tràm Trà Tinh Dầu Jojoba\nVà một số loại Thảo Dược quý hiếm khác……\nTác dụng: ĐẨY LÙI 100% MỤN DƯỚI DA lên khỏi bề mặt da mà không cần nặn, đẩy độc tố và chì mỹ phẩm lên bề mặt da, giảm đến 95% mụn đầu đen, mụn dị ứng, CÂN BẰNG DA DẦU thành da trung tính và SE KHÍT LỖ CHÂN LÔNG, mờ hẳn SẸO RỖ, LÀM ĐẦY SẸO LÕM do mụn để lại. Đánh tan mọi vết NÁM mỹ phẩm, điều trị hậu quả của da bị viêm nhiễm CORTICOID. Điều trị DỊ ỨNG mỹ phẩm hiệu quả, với tinh chất dưỡng da gấp 5 lần của tinh dầu nha đam và nghệ tươi giúp da bạn tái tạo nhanh, phục hồi nhanh chóng mà không bị khô da, da bạn sẽ trở nên trắng mịn, căng bóng so với da cơ bản đến 95%.\nHướng dẫn sử dụng:\n✔️ Xịt vài lần ra bông gòn hoặc lòng bàn tay, dùng bông thấm thuốc hoặc ngón tay bôi đủ thấm da vào buổi sáng, trưa và tối trước khi đi ngủ. Tránh bôi thuốc quanh mắt, càng xa mắt càng tốt, bôi thật mỏng thuốc như thoa nước hoa hồng.\n✔️ Bôi thuốc ngày 3 lần sáng – trưa – tối. Rửa mặt ngày 2 lần sáng và tối bằng nước lạnh hoặc ấm.\nMột Số Lưu Ý Khi Sử Dụng Mỹ Phẩm Thanh Dược:\n► Nên nặn sạch mụn ẩn, mụn đầu đen, nhân cứng sạch sẽ trước khi điều trị.\n► Trong những tuần đầu sử dụng Thuốc, các vấn đề về da sẽ trở nên rõ rệt hơn ( nám càng nám, mụn nhiều hơn, da sạm, lỗ chân lông to… ), các bạn tuyệt đối KHÔNG được nặn mụn mủ khi bôi thuốc, da sẽ cải thiện sau 6-10 tuần.\n► Trong quá trình bôi thuốc và điều trị các bạn KHÔNG được sử dụng bất cứ mỹ phẩm nào, kể cả sữa rửa mặt, không được make up.\n► Trong thời gian sử dụng thuốc sẽ có thể có những triệu chứng sau: mặt đỏ, sưng, ngứa, nổi mụn vì mụn dưới da được đẩy lên, khô da. Khi da đỏ, sưng các bạn ngưng thuốc 7-10 ngày, sau khi da hết đỏ, thì tiếp tục bôi thuốc. Đó là tất cả các triệu chứng bình thường khi sử dụng. Sau 6-10 tuần da sẽ hoàn thiện, mong các khách không lo lắng. Liên tục gửi ảnh qua Zalo 0931.029.348 cho Ms Lan để Lan theo dõi tình trạng da và tư vấn cho các bạn nhé.\n► Trong thời gian khách sử dụng Thuốc trị mụn Thanh Dược, khi có những triệu chứng da đỏ, sưng các bạn nên đắp Mask Thanh Dược, da sẽ khô rất nhanh và dịu da. Các thành phần Thảo Dược sẽ thấm sâu vào da làm mờ thâm nám, đồng thời giúp da phục hồi nhanh và căng mịn hơn, rút ngắn quá trình điều trị Mụn – Nám – Sẹo rỗ….",
            "image": "products/01_Serum_Thanh_Duoc_02a-600x600.jpg",
            "status": "in_stock",
            "visibility": "visible",
            "attributes": [
                {
                    "name": "Grams",
                    "value": "200"
                },
                {
                    "name": "Ingredients",
                    "value": "Strawberry, Blueberry, Sugar, Vanillin"
                },
                {
                    "name": "Calories",
                    "value": "120"
                },
                {
                    "name": "Potassium",
                    "value": "77 mg"
                },
                {
                    "name": "Total Fat",
                    "value": "0.1 g"
                }
            ]
        },
        {
            "id": 7,
            "name": "Mặt nạ Thảo mộc thiên nhiên",
            "price": 500000,
            "short_description": "Làm trắng da hiệu quả NGAY từ lần đầu tiên sử dụng, mịn da, chống lão hoá, tạo sự săn chắc và đàn hồi cho da, giảm các sắc tố sạm màu trên da, giảm thâm, ngăn ngừa mụn cám, mụn đầu đen và se nhỏ chân lông, giảm nếp nhăn, đào thải các chất độc tích tụ lâu ngày dưới da.",
            "description": "\nSản phẩm cam kết 100% chiết xuất từ thảo dược thiên nhiên chứa: Thành phần chính là từ các thảo dược đông y, không có chất bảo quản. Làm đẹp da từ các bài thuốc đông y là cách làm đẹp an toàn hiệu quả được lưu truyền lâu đời trong dân gian, và cũng như được các mỹ nhân Trung Quốc thời xưa sử dụng.\n– Thành phần: Hoa cúc, linh chi, ngọc trai, bạc hà, tảo biển, hoa đào và thảo dược thuốc đông y vừa đủ !\n– Tác Dụng:\n⇒ Mặt nạ thảo dược Thanh Dược có tác dụng làm trắng da ngay lần đầu tiên sử dụng.\n⇒ Mịn da.\n⇒ Chống lão hoá, giúp da săn chắc và tạo sự đàn hồi cho da.\n⇒ Giảm các sắc tố sạm màu trên da, giảm thâm.\n⇒ Ngăn ngừa mụn cám, mụn đầu đen và se nhỏ chân lông.\n⇒ Giảm nếp nhăn, đào thải các chất độc tích tụ lâu ngày dưới da.\nMặt nạ 100% thảo dược Thanh Dược có trọng lượng 130gr\nThời gian sử dụng khoảng 3 tháng.\n– Hướng dẫn sử dụng: Sử dụng 1-2 muỗng cafe nhỏ trộn đều với nước ấm (đối với khách đang điều trị với Thuốc Thanh Dược), trứng gà ta (và nhớ cho cả lòng đỏ và lòng trắng trứng vào nhé) hoặc sữa tươi không đường (đối với khách đã điều trị xong hoặc không điều trị Thanh Dược), tạo thành hỗn hợp sền sệt thoa đều lên da mặt, để khô tự nhiên 15 phút rồi rửa sạch lại bằng nước ấm. Nên sử dụng buổi tuổi trước khi đi ngủ và trước bước dùng kem dưỡng da. Nên kết hợp Mask Đông Y Thanh Dược với Thuốc trị mụn Thanh Dược để đạt hiệu quả tối ưu nhất. Sử dụng tuần 3 lần để có hiệu quả tốt nhất.\nLưu ý: Khi bạn đang điều trị bằng Thuốc Thanh Dược thì chỉ dùng mask để đắp, không pha mask với bất kì một loại hỗn hợp nào khác như trứng gà, hay sữa chua nhé!\nHệu quả khi sử dụng Mask Thanh Dược trong quá trình điều trị Mụn – Nám -Tàn Nhang – Sẹo Rỗ: Đắp mask thường xuyên trong quá trình điều trị mụn bằng Thanh Dược sẽ giúp đẩy nhanh quá trình điều trị mụn, giảm thâm nám, sẹo rỗ,.. giúp tế bào da chết nhanh bong hơn, giảm sưng đỏ, ngứa khi thấm thuốc, giúp se khít lỗ chân lông, dưỡng ẩm cho da sản sinh Collagen thúc đẩy quá trình tái tạo bề mặt da trắng mịn hồng hào.\nNgoài ra, đối với da đã điều trị xong hoặc không điều trị bằng Thuốc Thanh Dược thì đắp mask thường xuyên giúp da bạn trắng hồng. Chống lão hóa và giảm nếp nhăn cực kì hiệu quả. Bạn sẽ cảm nhận được lỗ chân lông nhỏ đi, da đều màu hơn, làn da càng ngày càng căng bóng mịn màng nhờ quá trình thúc đẩy sản sinh collagen cho da và giảm khả năng hình thành sắc tố melanin do khí hậu, môi trường. Hãy chăm chỉ đắp mask trước khi đi ngủ để có được làn da mơ ước,Vì bạn xứng đáng.",
            "image": "products/06_Mat_na_thao_moc-600x600.png",
            "status": "in_stock",
            "visibility": "visible",
            "attributes": [
                {
                    "name": "Grams",
                    "value": "200"
                },
                {
                    "name": "Ingredients",
                    "value": "Strawberry, Blueberry, Sugar, Vanillin"
                },
                {
                    "name": "Calories",
                    "value": "120"
                },
                {
                    "name": "Potassium",
                    "value": "77 mg"
                },
                {
                    "name": "Total Fat",
                    "value": "0.1 g"
                }
            ]
        }
    ]
}